{
  "content": [
    {
      "path": "modules/events.txt",
      "size": 86238,
      "date": 132621057343026307
    },
    {
      "path": "modules/StandaloneModule.wasm",
      "size": 689767,
      "date": 132622647737175503
    }
  ]
}